An Antarctic Tour of the Tidyverse
…
```r
# try each of these commands in the console and see if you can spot the differences!

as_tibble(penguins)
as.data.frame(penguins)
```
]

.panel[.panel-name[Result]
.pull-left[

```r
as_tibble(penguins)
## # A tibble: 344 x 8
##    species island    bill_length_mm bill_depth_mm flipper_length_mm body_mass_g sex     year
##    <fct>   <fct>              <dbl>         <dbl>             <int>       <int> <fct>  <int>
##  1 Adelie  Torgersen           39.1          18.7               181        3750 male    2007
##  2 Adelie  Torgersen           39.5          17.4               186        3800 female  2007
##  3 Adelie  Torgersen           40.3          18                 195        3250 female  2007
##  4 Adelie  Torgersen           NA            NA                  NA          NA <NA>    2007
##  5 Adelie  Torgersen           36.7          19.3               193        3450 female  2007
##  6 Adelie  Torgersen           39.3          20.6               190        3650 male    2007
##  7 Adelie  Torgersen           38.9          17.8               181        3625 female  2007
##  8 Adelie  Torgersen           39.2          19.6               195        4675 male    2007
##  9 Adelie  Torgersen           34.1          18.1               193        3475 <NA>    2007
## 10 Adelie  Torgersen           42            20.2               190        4250 <NA>    2007
## # … with 334 more rows
```
…
# dplyr: exercise

.panelset[

.panel[.panel-name[Select]
.center[ 
### Can you spot the difference in performing the same operation?
]
.pull-left[

```r
select(penguins, species, sex, body_mass_g)
## # A tibble: 344 x 3
##    species sex    body_mass_g
##    <fct>   <fct>        <int>
##  1 Adelie  male          3750
##  2 Adelie  female        3800
##  3 Adelie  female        3250
##  4 Adelie  <NA>            NA
##  5 Adelie  female        3450
##  6 Adelie  male          3650
##  7 Adelie  female        3625
##  8 Adelie  male          4675
##  9 Adelie  <NA>          3475
## 10 Adelie  <NA>          4250
## # … with 334 more rows
```
]

.pull-right[

```r
penguins %>%
  select(species, sex, body_mass_g)
## # A tibble: 344 x 3
##    species sex    body_mass_g
##    <fct>   <fct>        <int>
##  1 Adelie  male          3750
##  2 Adelie  female        3800
##  3 Adelie  female        3250
##  4 Adelie  <NA>            NA
##  5 Adelie  female        3450
##  6 Adelie  male          3650
##  7 Adelie  female        3625
##  8 Adelie  male          4675
##  9 Adelie  <NA>          3475
## 10 Adelie  <NA>          4250
## # … with 334 more rows
```
…
```r
penguins %>%
  select(species, sex, body_mass_g) %>%
* arrange(desc(body_mass_g))
## # A tibble: 344 x 3
##    species sex   body_mass_g
##    <fct>   <fct>       <int>
##  1 Gentoo  male         6300
##  2 Gentoo  male         6050
##  3 Gentoo  male         6000
##  4 Gentoo  male         6000
##  5 Gentoo  male         5950
##  6 Gentoo  male         5950
##  7 Gentoo  male         5850
##  8 Gentoo  male         5850
##  9 Gentoo  male         5850
## 10 Gentoo  male         5800
## # … with 334 more rows
```
…
]

.panel[.panel-name[Result]
### The result is a new factor **year_factor** with levels **2007**, **2008**, and **2009**
.pull-left[

```r
penguins_new <-
  penguins %>%
  mutate(year_factor = 
*          factor(year,
*                 levels = unique(year)))
penguins_new
## # A tibble: 344 x 9
##    species island    bill_length_mm bill_depth_mm flipper_length_mm body_mass_g sex     year year_factor
##    <fct>   <fct>              <dbl>         <dbl>             <int>       <int> <fct>  <int> <fct>      
##  1 Adelie  Torgersen           39.1          18.7               181        3750 male    2007 2007       
##  2 Adelie  Torgersen           39.5          17.4               186        3800 female  2007 2007       
##  3 Adelie  Torgersen           40.3          18                 195        3250 female  2007 2007       
##  4 Adelie  Torgersen           NA            NA                  NA          NA <NA>    2007 2007       
##  5 Adelie  Torgersen           36.7          19.3               193        3450 female  2007 2007       
##  6 Adelie  Torgersen           39.3          20.6               190        3650 male    2007 2007       
##  7 Adelie  Torgersen           38.9          17.8               181        3625 female  2007 2007       
##  8 Adelie  Torgersen           39.2          19.6               195        4675 male    2007 2007       
##  9 Adelie  Torgersen           34.1          18.1               193        3475 <NA>    2007 2007       
## 10 Adelie  Torgersen           42            20.2               190        4250 <NA>    2007 2007       
## # … with 334 more rows
```
…
# stringr: exercise

.panelset[
.panel[.panel-name[Mutate]

### What does this chunk do?

```r
penguins %>%
  select(species, island) %>%
* mutate(ISLAND = str_to_upper(island))
## # A tibble: 344 x 3
##    species island    ISLAND   
##    <fct>   <fct>     <chr>    
##  1 Adelie  Torgersen TORGERSEN
##  2 Adelie  Torgersen TORGERSEN
##  3 Adelie  Torgersen TORGERSEN
##  4 Adelie  Torgersen TORGERSEN
##  5 Adelie  Torgersen TORGERSEN
##  6 Adelie  Torgersen TORGERSEN
##  7 Adelie  Torgersen TORGERSEN
##  8 Adelie  Torgersen TORGERSEN
##  9 Adelie  Torgersen TORGERSEN
## 10 Adelie  Torgersen TORGERSEN
## # … with 334 more rows
```
]

.panel[.panel-name[Join]

### How about this one?

```r
penguins %>%
  select(species, island) %>%
  mutate(ISLAND = str_to_upper(island)) %>%
* mutate(species_island = str_c(species, ISLAND, sep = "_"))
## # A tibble: 344 x 4
##    species island    ISLAND    species_island  
##    <fct>   <fct>     <chr>     <chr>           
##  1 Adelie  Torgersen TORGERSEN Adelie_TORGERSEN
##  2 Adelie  Torgersen TORGERSEN Adelie_TORGERSEN
##  3 Adelie  Torgersen TORGERSEN Adelie_TORGERSEN
##  4 Adelie  Torgersen TORGERSEN Adelie_TORGERSEN
##  5 Adelie  Torgersen TORGERSEN Adelie_TORGERSEN
##  6 Adelie  Torgersen TORGERSEN Adelie_TORGERSEN
##  7 Adelie  Torgersen TORGERSEN Adelie_TORGERSEN
##  8 Adelie  Torgersen TORGERSEN Adelie_TORGERSEN
##  9 Adelie  Torgersen TORGERSEN Adelie_TORGERSEN
## 10 Adelie  Torgersen TORGERSEN Adelie_TORGERSEN
## # … with 334 more rows
```
…
# tidyr: exercise

.panelset[
.panel[.panel-name[Un-tidying]

### Both penguin datasets are already tidy!

We can pretend that `penguins` wasn't tidy and that it looked instead like `untidy_penguins` below, where **body_mass_g** was recorded separately for *male*, *female*, and *NA* **sex** penguins.

```r
untidy_penguins <- 
  penguins %>% pivot_wider(names_from = sex, values_from = body_mass_g)
untidy_penguins
## # A tibble: 344 x 9
##    species island    bill_length_mm bill_depth_mm flipper_length_mm  year  male female  `NA`
##    <fct>   <fct>              <dbl>         <dbl>             <int> <int> <int>  <int> <int>
##  1 Adelie  Torgersen           39.1          18.7               181  2007  3750     NA    NA
##  2 Adelie  Torgersen           39.5          17.4               186  2007    NA   3800    NA
##  3 Adelie  Torgersen           40.3          18                 195  2007    NA   3250    NA
##  4 Adelie  Torgersen           NA            NA                  NA  2007    NA     NA    NA
##  5 Adelie  Torgersen           36.7          19.3               193  2007    NA   3450    NA
##  6 Adelie  Torgersen           39.3          20.6               190  2007  3650     NA    NA
##  7 Adelie  Torgersen           38.9          17.8               181  2007    NA   3625    NA
##  8 Adelie  Torgersen           39.2          19.6               195  2007  4675     NA    NA
##  9 Adelie  Torgersen           34.1          18.1               193  2007    NA     NA  3475
## 10 Adelie  Torgersen           42            20.2               190  2007    NA     NA  4250
## # … with 334 more rows
```

]

.panel[.panel-name[Re-tidying]

### Now let's make it tidy again!

We'll use the help of `pivot_longer()`

```r
untidy_penguins %>%
* pivot_longer(cols = male:`NA`,
*              names_to = "sex",
*              values_to = "body_mass_g")
## # A tibble: 1,032 x 8
##    species island    bill_length_mm bill_depth_mm flipper_length_mm  year sex    body_mass_g
##    <fct>   <fct>              <dbl>         <dbl>             <int> <int> <chr>        <int>
##  1 Adelie  Torgersen           39.1          18.7               181  2007 male          3750
##  2 Adelie  Torgersen           39.1          18.7               181  2007 female          NA
##  3 Adelie  Torgersen           39.1          18.7               181  2007 NA              NA
##  4 Adelie  Torgersen           39.5          17.4               186  2007 male            NA
##  5 Adelie  Torgersen           39.5          17.4               186  2007 female        3800
##  6 Adelie  Torgersen           39.5          17.4               186  2007 NA              NA
##  7 Adelie  Torgersen           40.3          18                 195  2007 male            NA
##  8 Adelie  Torgersen           40.3          18                 195  2007 female        3250
##  9 Adelie  Torgersen           40.3          18                 195  2007 NA              NA
## 10 Adelie  Torgersen           NA            NA                  NA  2007 male            NA
## # … with 1,022 more rows
```
…
